%YAML 1.1
%TAG !u! tag:unity3d.com,2011:
--- !u!114 &11400000
MonoBehaviour:
  m_ObjectHideFlags: 0
  m_PrefabParentObject: {fileID: 0}
  m_PrefabInternal: {fileID: 0}
  m_GameObject: {fileID: 0}
  m_Enabled: 1
  m_EditorHideFlags: 0
  m_Script: {fileID: 11500000, guid: 6cf6dd22c369e34429b79f680218b77a, type: 3}
  m_Name: Find Turtle
  m_EditorClassIdentifier: 
  eventName: Find Turtle
  eventType: 2
  acceptableInput:
  - GreenSeaTurtle
  introduction: Hey, I've always wanted to see a green sea turtle.
  wrong: I don't think that's a turtle.
  right: Woah! How cool is that! Thank you, diver.
  instructions: Let's try to find one - I've heard they can live to be over a hundred
    years old!
  description: Find a Green Sea Turtle!
  hint: Make sure to hold the palm trigger, point at a fish, and press the A button
  eventIcon: {fileID: 0}
