%YAML 1.1
%TAG !u! tag:unity3d.com,2011:
--- !u!114 &11400000
MonoBehaviour:
  m_ObjectHideFlags: 0
  m_PrefabParentObject: {fileID: 0}
  m_PrefabInternal: {fileID: 0}
  m_GameObject: {fileID: 0}
  m_Enabled: 1
  m_EditorHideFlags: 0
  m_Script: {fileID: 11500000, guid: 8b9fce57ea77f4c4ca21c64616e61cd7, type: 3}
  m_Name: Egg-YolkJelly
  m_EditorClassIdentifier: 
  fishname: Egg-Yolk Jelly
  scientificname: Phacellophora camtschatica
  size: bell up to 2 feet (61 cm) in diameter, tentacles extending 20 feet (6 m) in
    length
  habitat: Open Waters
  animaltype: Invertebrates
  diet: other jellies
  relative: 'lion''s mane jelly; Family: Cyaneidae'
  range: eastern Pacific temperate waters from the Gulf of Alaska to Chile, Eastern
    Pacific, the Atlantic and the Mediterranean
  icon: {fileID: 21300000, guid: 2ac95837ae94f2a44956b24ef796629f, type: 3}
  discovered: 0
