%YAML 1.1
%TAG !u! tag:unity3d.com,2011:
--- !u!114 &11400000
MonoBehaviour:
  m_ObjectHideFlags: 0
  m_PrefabParentObject: {fileID: 0}
  m_PrefabInternal: {fileID: 0}
  m_GameObject: {fileID: 0}
  m_Enabled: 1
  m_EditorHideFlags: 0
  m_Script: {fileID: 11500000, guid: 8b9fce57ea77f4c4ca21c64616e61cd7, type: 3}
  m_Name: MoonJelly
  m_EditorClassIdentifier: 
  fishname: Moon Jelly
  scientificname: Aurelia labiata
  size: to 15 inches (38 cm) in diameter
  habitat: Open Waters
  animaltype: Invertebrates
  diet: small plankton, like molluscs, crustaceans, fish eggs and other small jellies
  relative: 'Portuguese man-of-war, hydromedusae, other siphonophores, sea anemones,
    coral; Family: Ulmaridae'
  range: common in Monterey Bay and along the California coast, and in the waters
    off the East Coast, Europe, Japan and the Gulf of Mexico
  icon: {fileID: 21300000, guid: 953774578f592c247bb9f03d7c99addd, type: 3}
  discovered: 0
