%YAML 1.1
%TAG !u! tag:unity3d.com,2011:
--- !u!114 &11400000
MonoBehaviour:
  m_ObjectHideFlags: 0
  m_PrefabParentObject: {fileID: 0}
  m_PrefabInternal: {fileID: 0}
  m_GameObject: {fileID: 0}
  m_Enabled: 1
  m_EditorHideFlags: 0
  m_Script: {fileID: 11500000, guid: 8b9fce57ea77f4c4ca21c64616e61cd7, type: 3}
  m_Name: PacificBonito
  m_EditorClassIdentifier: 
  fishname: Pacific Bonito
  scientificname: Sarda chiliensis
  size: 3.3 feet (1 meter)
  habitat: Open Waters
  animaltype: Fishes
  diet: fishes, squid, krill
  relative: 'other mackerels and tunas; family: Scombridae'
  range: worldwide in tropical and temperate waters
  icon: {fileID: 21300000, guid: 37c7a9c8d7de4a24ab7d30b0bfb6ae72, type: 3}
  discovered: 0
