%YAML 1.1
%TAG !u! tag:unity3d.com,2011:
--- !u!114 &11400000
MonoBehaviour:
  m_ObjectHideFlags: 0
  m_PrefabParentObject: {fileID: 0}
  m_PrefabInternal: {fileID: 0}
  m_GameObject: {fileID: 0}
  m_Enabled: 1
  m_EditorHideFlags: 0
  m_Script: {fileID: 11500000, guid: 8b9fce57ea77f4c4ca21c64616e61cd7, type: 3}
  m_Name: PelagicRedCrab
  m_EditorClassIdentifier: 
  fishname: Pelagic Red Crab
  scientificname: N/A
  size: N/A
  habitat: N/A
  animaltype: N/A
  diet: N/A
  relative: N/A
  range: N/A
  icon: {fileID: 21300000, guid: 06c13cf0e3b87454c88de6ef429f2cd5, type: 3}
  discovered: 0
